<svg width="16" height="14" viewBox="0 0 16 14" fill="none" xmlns="http://www.w3.org/2000/svg">
<path d="M8.64244 1.55309C7.54378 2.16724 6.83738 2.9205 6.14859 3.65193C5.41174 4.43373 4.71616 5.17135 3.54605 5.79928C2.76648 6.22323 1.90841 6.50029 0.995378 6.63912L0.347093 6.73806L4.03363 13.7785L4.36074 13.7316C5.21404 13.6078 6.02739 13.3683 6.77894 13.0189C6.89818 12.9633 7.01364 12.9065 7.12552 12.848C8.37399 12.1942 9.15727 11.364 9.91758 10.5604C10.7185 9.71247 11.4737 8.91216 12.7621 8.3126C13.4465 7.99762 14.1731 7.78418 14.9187 7.67909L15.5734 7.58419L11.8853 0.540897L11.5609 0.584747C10.7221 0.698529 9.90505 0.939326 9.1381 1.2988C8.9699 1.37763 8.80458 1.46245 8.64244 1.55309ZM9.09342 2.35991C9.23215 2.28202 9.37635 2.20652 9.52895 2.13396C9.68738 2.05941 9.84968 1.99228 10.0137 1.92948C10.2122 2.15508 10.491 2.29481 10.7915 2.31931C11.092 2.34381 11.3909 2.25117 11.6253 2.06086L13.5896 5.81228C13.4395 5.85588 13.2995 5.92907 13.1781 6.02752C13.0567 6.12596 12.9562 6.24764 12.8827 6.38534C12.8091 6.52303 12.7641 6.67393 12.7501 6.82908C12.7361 6.98422 12.7536 7.14045 12.8014 7.28847C12.6568 7.3463 12.5138 7.4082 12.3727 7.47408C10.9253 8.15321 10.0673 9.05358 9.24089 9.92954C8.43912 10.7789 7.67902 11.5829 6.39119 12.1816C6.2304 12.2554 6.06703 12.3235 5.90138 12.3856C5.70276 12.161 5.42436 12.0221 5.12445 11.9979C4.82455 11.9738 4.52639 12.0663 4.29239 12.256L2.32805 8.50461C2.47907 8.46075 2.61977 8.38691 2.74167 8.28755C2.86357 8.18819 2.96415 8.06536 3.03737 7.92645C3.11058 7.78753 3.15491 7.63541 3.16769 7.47923C3.18047 7.32305 3.16143 7.16605 3.11172 7.01768C3.41088 6.89832 3.70357 6.76659 3.9842 6.61386C5.28875 5.91397 6.06933 5.08458 6.82507 4.28238C7.49023 3.5754 8.12612 2.90528 9.09342 2.35991ZM7.09557 5.50983C7.40613 6.10292 7.29474 6.45586 6.69848 6.76808L7.13011 7.59238C7.45165 7.42402 7.69295 7.21836 7.86991 6.98864L8.82208 8.80706L9.65081 8.37312L7.92429 5.07589L7.09557 5.50983ZM10.4191 4.29471C10.2542 4.38102 10.1303 4.52894 10.0744 4.70591C10.0186 4.88289 10.0354 5.07443 10.1213 5.23839C10.2071 5.40236 10.355 5.52532 10.5322 5.58022C10.7095 5.63513 10.9017 5.61748 11.0665 5.53117C11.2314 5.44485 11.3554 5.29694 11.4112 5.11996C11.4671 4.94299 11.4502 4.75145 11.3644 4.58748C11.2785 4.42352 11.1307 4.30056 10.9534 4.24565C10.7761 4.19075 10.5839 4.20839 10.4191 4.29471ZM4.85112 8.78572C4.68628 8.87204 4.56229 9.01995 4.50644 9.19693C4.45059 9.3739 4.46744 9.56544 4.5533 9.72941C4.63916 9.89337 4.78698 10.0163 4.96425 10.0712C5.14152 10.1261 5.33372 10.1085 5.49856 10.0222C5.66341 9.93586 5.78739 9.78795 5.84324 9.61097C5.8991 9.434 5.88224 9.24246 5.79638 9.07849C5.71053 8.91453 5.5627 8.79157 5.38543 8.73666C5.20816 8.68176 5.01596 8.6994 4.85112 8.78572Z" fill="black"/>
</svg>
