<svg width="18" height="13" viewBox="0 0 18 13" fill="none" xmlns="http://www.w3.org/2000/svg">
<path d="M6.36097 0.973472L8.95611 3.56862C8.9634 3.57634 8.9709 3.58385 8.97863 3.59113L8.9996 3.6121L9.00158 3.61011C9.07884 3.67302 9.17618 3.71253 9.2839 3.71253C9.40299 3.71247 9.51719 3.66512 9.60138 3.58089C9.68557 3.49666 9.73287 3.38244 9.73287 3.26334C9.73287 3.10155 9.64656 2.96094 9.51809 2.88192L6.93553 0.299579C6.89378 0.251343 6.84217 0.212628 6.78417 0.186049C6.72618 0.159469 6.66315 0.145644 6.59936 0.145508C6.48029 0.145508 6.36609 0.19281 6.28189 0.277008C6.19769 0.361206 6.15039 0.475402 6.15039 0.594476C6.15039 0.754507 6.23471 0.89423 6.36097 0.973472Z" fill="white"/>
<path d="M9.28386 9.97167V4.44477H3.34618C3.31374 4.44477 3.28217 4.45293 3.25083 4.46485L0.830063 3.0674L0.828076 3.07071C0.748144 3.02837 0.659169 3.00595 0.568716 3.00537C0.445886 3.00497 0.326246 3.04447 0.227807 3.11794C0.129368 3.1914 0.0574572 3.29486 0.0228981 3.41273C-0.011661 3.5306 -0.00699782 3.6565 0.0361859 3.77149C0.0793696 3.88648 0.158737 3.98433 0.262341 4.05032L0.258147 4.0576L2.71092 5.47382C2.61622 5.88614 2.55972 6.3925 2.55972 6.9419C2.55972 8.10317 2.80981 9.07616 3.14775 9.35582L1.76508 11.751C1.65826 11.8858 1.59987 12.0527 1.59931 12.2247C1.59931 12.4303 1.68099 12.6275 1.82637 12.7728C1.97175 12.9182 2.16892 12.9999 2.37452 12.9999C2.49318 12.9996 2.61017 12.9719 2.71637 12.919C2.82258 12.8661 2.91514 12.7894 2.98683 12.6948L3.00008 12.7026L4.61738 9.90125L6.23468 12.7023L6.24792 12.6948C6.31962 12.7894 6.41218 12.8661 6.51838 12.919C6.62459 12.9719 6.74158 12.9996 6.86023 12.9999C7.06583 12.9999 7.26301 12.9182 7.40839 12.7728C7.55377 12.6275 7.63544 12.4303 7.63544 12.2247C7.63544 12.0454 7.57209 11.8823 7.46967 11.751L6.42517 9.94209C6.96972 9.97343 7.56105 9.99065 8.18021 9.99065C8.56009 9.99065 8.92915 9.98403 9.28386 9.97167Z" fill="white"/>
<path d="M13.1746 9.39794C13.4286 9.25468 13.6408 8.72493 13.7478 8.00622L10.1669 4.42529V9.43281L8.82837 11.7509C8.72154 11.8858 8.66316 12.0526 8.6626 12.2246C8.6626 12.4302 8.74427 12.6274 8.88965 12.7728C9.03503 12.9182 9.23221 12.9998 9.43781 12.9998C9.55646 12.9995 9.67345 12.9719 9.77966 12.919C9.88586 12.866 9.97842 12.7893 10.0501 12.6948L10.0634 12.7025L11.6807 9.90121L13.2982 12.7023L13.3114 12.6948C13.3831 12.7893 13.4757 12.866 13.5819 12.919C13.6881 12.9719 13.8051 12.9995 13.9237 12.9998C14.1293 12.9998 14.3265 12.9182 14.4719 12.7728C14.6173 12.6274 14.6989 12.4302 14.6989 12.2246C14.6989 12.0454 14.6356 11.8823 14.5332 11.7509L13.1746 9.39794Z" fill="white"/>
<path d="M17.2165 4.66252C17.2165 4.47931 17.1263 4.31817 16.989 4.21774L16.1268 3.35556V2.45829C16.1268 2.12101 15.9328 1.83207 15.652 1.68794L14.5364 1.04384L14.5333 1.04914C14.438 0.992444 14.3326 0.954741 14.223 0.93811L13.6813 0L12.556 1.94906L10.7476 3.7573L13.8199 6.82966C13.8174 6.60422 13.8048 6.379 13.7824 6.15466L14.3885 5.54853H16.5683V5.54257L17.0481 5.0627L17.0459 5.06049C17.0998 5.00914 17.1427 4.94739 17.172 4.87899C17.2013 4.81058 17.2165 4.73694 17.2165 4.66252Z" fill="white"/>
</svg>
